EESchema Schematic File Version 2
LIBS:power
LIBS:device
LIBS:transistors
LIBS:conn
LIBS:linear
LIBS:regul
LIBS:74xx
LIBS:cmos4000
LIBS:adc-dac
LIBS:memory
LIBS:xilinx
LIBS:special
LIBS:microcontrollers
LIBS:dsp
LIBS:microchip
LIBS:analog_switches
LIBS:motorola
LIBS:texas
LIBS:intel
LIBS:audio
LIBS:interface
LIBS:digital-audio
LIBS:philips
LIBS:display
LIBS:cypress
LIBS:siliconi
LIBS:opto
LIBS:atmel
LIBS:contrib
LIBS:valves
LIBS:stm32
LIBS:comm
LIBS:project-cache
EELAYER 25 0
EELAYER END
$Descr A4 11693 8268
encoding utf-8
Sheet 1 1
Title ""
Date ""
Rev ""
Comp ""
Comment1 ""
Comment2 ""
Comment3 ""
Comment4 ""
$EndDescr
$Comp
L STM32F103RBT6 D1
U 1 1 5565489A
P 3200 2700
F 0 "D1" H 3200 4500 60  0000 C CNN
F 1 "STM32F103RBT6" H 3200 900 60  0000 C CNN
F 2 "Housings_QFP:LQFP-64_10x10mm_Pitch0.5mm" H 3200 2700 60  0001 C CNN
F 3 "" H 3200 2700 60  0000 C CNN
	1    3200 2700
	1    0    0    -1  
$EndComp
$Comp
L LM317_SOT223 U1
U 1 1 5565997F
P 8100 5450
F 0 "U1" H 8100 5750 60  0000 C CNN
F 1 "LM1117-3.3" H 7900 5450 39  0000 L CNN
F 2 "SMD_Packages:SOT-223" H 8100 5450 60  0001 C CNN
F 3 "~" H 8100 5450 60  0000 C CNN
	1    8100 5450
	1    0    0    -1  
$EndComp
$Comp
L CP1 C5
U 1 1 5565998C
P 8600 5600
F 0 "C5" H 8650 5700 50  0000 L CNN
F 1 "10u" H 8650 5500 50  0000 L CNN
F 2 "Capacitors_Tantalum_SMD:TantalC_SizeB_EIA-3528_Reflow" H 8600 5600 39  0001 C CNN
F 3 "~" H 8600 5600 60  0000 C CNN
	1    8600 5600
	1    0    0    -1  
$EndComp
$Comp
L C C7
U 1 1 556599A8
P 9200 5600
F 0 "C7" H 9200 5700 40  0000 L CNN
F 1 "100n" H 9200 5500 40  0000 L CNN
F 2 "Capacitors_SMD:C_0603" H 9500 5600 39  0001 C CNN
F 3 "~" H 9200 5600 60  0000 C CNN
	1    9200 5600
	1    0    0    -1  
$EndComp
$Comp
L C C8
U 1 1 556599AF
P 9500 5600
F 0 "C8" H 9500 5700 40  0000 L CNN
F 1 "100n" H 9500 5500 40  0000 L CNN
F 2 "Capacitors_SMD:C_0603" H 9800 5600 39  0001 C CNN
F 3 "~" H 9500 5600 60  0000 C CNN
	1    9500 5600
	1    0    0    -1  
$EndComp
$Comp
L C C9
U 1 1 556599B6
P 9800 5600
F 0 "C9" H 9800 5700 40  0000 L CNN
F 1 "100n" H 9800 5500 40  0000 L CNN
F 2 "Capacitors_SMD:C_0603" H 10100 5600 39  0001 C CNN
F 3 "~" H 9800 5600 60  0000 C CNN
	1    9800 5600
	1    0    0    -1  
$EndComp
$Comp
L C C10
U 1 1 556599BD
P 10100 5600
F 0 "C10" H 10100 5700 40  0000 L CNN
F 1 "100n" H 10100 5500 40  0000 L CNN
F 2 "Capacitors_SMD:C_0603" H 10400 5600 39  0001 C CNN
F 3 "~" H 10100 5600 60  0000 C CNN
	1    10100 5600
	1    0    0    -1  
$EndComp
$Comp
L C C11
U 1 1 556599D3
P 10400 5600
F 0 "C11" H 10400 5700 40  0000 L CNN
F 1 "100n" H 10400 5500 40  0000 L CNN
F 2 "Capacitors_SMD:C_0603" H 10700 5600 39  0001 C CNN
F 3 "~" H 10400 5600 60  0000 C CNN
	1    10400 5600
	1    0    0    -1  
$EndComp
$Comp
L R R4
U 1 1 556599EA
P 9000 2950
F 0 "R4" V 9080 2950 50  0000 C CNN
F 1 "47K" V 9000 2950 50  0000 C CNN
F 2 "Resistors_SMD:R_0603" H 9000 2950 60  0001 C CNN
F 3 "" H 9000 2950 60  0001 C CNN
	1    9000 2950
	-1   0    0    1   
$EndComp
$Comp
L R R6
U 1 1 556599F1
P 9600 2650
F 0 "R6" V 9680 2650 50  0000 C CNN
F 1 "10K" V 9600 2650 50  0000 C CNN
F 2 "Resistors_SMD:R_0603" H 9600 2650 60  0001 C CNN
F 3 "" H 9600 2650 60  0001 C CNN
	1    9600 2650
	-1   0    0    1   
$EndComp
$Comp
L R R7
U 1 1 556599F8
P 9600 3350
F 0 "R7" V 9680 3350 50  0000 C CNN
F 1 "36K" V 9600 3350 50  0000 C CNN
F 2 "Resistors_SMD:R_0603" H 9600 3350 60  0001 C CNN
F 3 "" H 9600 3350 60  0001 C CNN
	1    9600 3350
	-1   0    0    1   
$EndComp
$Comp
L R R2
U 1 1 55659A06
P 8400 1550
F 0 "R2" V 8480 1550 50  0000 C CNN
F 1 "22" V 8400 1550 50  0000 C CNN
F 2 "Resistors_SMD:R_0603" H 8400 1550 60  0001 C CNN
F 3 "" H 8400 1550 60  0001 C CNN
	1    8400 1550
	-1   0    0    1   
$EndComp
$Comp
L R R5
U 1 1 55659A0D
P 9050 2300
F 0 "R5" V 9130 2300 50  0000 C CNN
F 1 "22" V 9050 2300 50  0000 C CNN
F 2 "Resistors_SMD:R_0603" H 9050 2300 60  0001 C CNN
F 3 "" H 9050 2300 60  0001 C CNN
	1    9050 2300
	0    1    -1   0   
$EndComp
$Comp
L C C4
U 1 1 55659A14
P 8400 2700
F 0 "C4" H 8450 2800 50  0000 L CNN
F 1 "47p" H 8450 2600 50  0000 L CNN
F 2 "Resistors_SMD:R_0603" H 8400 2700 60  0001 C CNN
F 3 "" H 8400 2700 60  0001 C CNN
	1    8400 2700
	-1   0    0    -1  
$EndComp
$Comp
L GND #PWR01
U 1 1 55659A21
P 8550 3100
F 0 "#PWR01" H 8550 3100 30  0001 C CNN
F 1 "GND" H 8550 3030 30  0001 C CNN
F 2 "" H 8550 3100 60  0001 C CNN
F 3 "" H 8550 3100 60  0001 C CNN
	1    8550 3100
	1    0    0    -1  
$EndComp
$Comp
L C C6
U 1 1 55659A27
P 8700 2700
F 0 "C6" H 8750 2800 50  0000 L CNN
F 1 "47p" H 8750 2600 50  0000 L CNN
F 2 "Resistors_SMD:R_0603" H 8700 2700 60  0001 C CNN
F 3 "" H 8700 2700 60  0001 C CNN
	1    8700 2700
	1    0    0    -1  
$EndComp
Text Label 9100 2000 0    60   ~ 0
USBDP
$Comp
L ESD_PROT U2
U 1 1 55659A36
P 9050 1550
F 0 "U2" H 8800 1300 60  0000 C CNN
F 1 "ESD_PROT" H 8750 1900 60  0000 C CNN
F 2 "Housings_SOT-23_SOT-143_TSOT-6:SOT-143" H 9050 1550 60  0001 C CNN
F 3 "" H 9050 1550 60  0001 C CNN
	1    9050 1550
	1    0    0    1   
$EndComp
Text Label 8500 1100 0    60   ~ 0
USBDM
$Comp
L GND #PWR02
U 1 1 55659A3E
P 8600 1650
F 0 "#PWR02" H 8600 1650 30  0001 C CNN
F 1 "GND" H 8600 1580 30  0001 C CNN
F 2 "" H 8600 1650 60  0001 C CNN
F 3 "" H 8600 1650 60  0001 C CNN
	1    8600 1650
	1    0    0    -1  
$EndComp
$Comp
L R R8
U 1 1 55659A44
P 10400 2650
F 0 "R8" V 10480 2650 50  0000 C CNN
F 1 "1K5" V 10400 2650 50  0000 C CNN
F 2 "Resistors_SMD:R_0603" H 10400 2650 60  0001 C CNN
F 3 "" H 10400 2650 60  0001 C CNN
	1    10400 2650
	-1   0    0    1   
$EndComp
Text GLabel 8200 2300 0    60   Input ~ 0
USB_DP
Text GLabel 8200 2000 0    60   Input ~ 0
USB_DM
Text GLabel 8200 3300 0    60   Input ~ 0
USB_DISC
$Comp
L R R3
U 1 1 55659A4E
P 8650 3300
F 0 "R3" V 8730 3300 50  0000 C CNN
F 1 "1K" V 8650 3300 50  0000 C CNN
F 2 "Resistors_SMD:R_0603" H 8650 3300 60  0001 C CNN
F 3 "" H 8650 3300 60  0001 C CNN
	1    8650 3300
	0    1    -1   0   
$EndComp
$Comp
L BC817-40 Q2
U 1 1 55659A55
P 10100 3000
F 0 "Q2" H 10050 3100 40  0000 R CNN
F 1 "3904" H 10100 2850 40  0000 R CNN
F 2 "Housings_SOT-23_SOT-143_TSOT-6:SOT-23" H 10050 2750 39  0001 C CNN
F 3 "~" H 10100 3000 60  0000 C CNN
	1    10100 3000
	1    0    0    -1  
$EndComp
$Comp
L BC817-40 Q1
U 1 1 55659A5C
P 9300 3300
F 0 "Q1" H 9250 3400 40  0000 R CNN
F 1 "3904" H 9300 3150 40  0000 R CNN
F 2 "Housings_SOT-23_SOT-143_TSOT-6:SOT-23" H 9250 3050 39  0001 C CNN
F 3 "~" H 9300 3300 60  0000 C CNN
	1    9300 3300
	1    0    0    -1  
$EndComp
$Comp
L +3V3 #PWR03
U 1 1 55659B70
P 10200 2650
F 0 "#PWR03" H 10200 2500 60  0001 C CNN
F 1 "+3V3" H 10200 2790 60  0000 C CNN
F 2 "" H 10200 2650 60  0000 C CNN
F 3 "" H 10200 2650 60  0000 C CNN
	1    10200 2650
	1    0    0    -1  
$EndComp
$Comp
L +3V3 #PWR04
U 1 1 55659BED
P 9000 2600
F 0 "#PWR04" H 9000 2450 60  0001 C CNN
F 1 "+3V3" H 9000 2740 60  0000 C CNN
F 2 "" H 9000 2600 60  0000 C CNN
F 3 "" H 9000 2600 60  0000 C CNN
	1    9000 2600
	1    0    0    -1  
$EndComp
$Comp
L +5V #PWR05
U 1 1 55659C68
P 9700 1450
F 0 "#PWR05" H 9700 1300 60  0001 C CNN
F 1 "+5V" H 9700 1590 60  0000 C CNN
F 2 "" H 9700 1450 60  0000 C CNN
F 3 "" H 9700 1450 60  0000 C CNN
	1    9700 1450
	1    0    0    -1  
$EndComp
$Comp
L +3V3 #PWR06
U 1 1 5565A577
P 8600 5200
F 0 "#PWR06" H 8600 5050 60  0001 C CNN
F 1 "+3V3" H 8600 5340 60  0000 C CNN
F 2 "" H 8600 5200 60  0000 C CNN
F 3 "" H 8600 5200 60  0000 C CNN
	1    8600 5200
	1    0    0    -1  
$EndComp
Text GLabel 1300 2300 0    60   Input ~ 0
USB_DP
Text GLabel 1300 2200 0    60   Input ~ 0
USB_DM
Text GLabel 1300 3200 0    60   Input ~ 0
RESET
Text GLabel 1300 2800 0    60   Input ~ 0
OSC_IN
Text GLabel 1300 2900 0    60   Input ~ 0
OSC_OUT
$Comp
L GND #PWR07
U 1 1 55665FD7
P 9600 3800
F 0 "#PWR07" H 9600 3550 60  0001 C CNN
F 1 "GND" H 9600 3650 60  0000 C CNN
F 2 "" H 9600 3800 60  0000 C CNN
F 3 "" H 9600 3800 60  0000 C CNN
	1    9600 3800
	1    0    0    -1  
$EndComp
$Comp
L GND #PWR08
U 1 1 556662EE
P 8100 6000
F 0 "#PWR08" H 8100 5750 60  0001 C CNN
F 1 "GND" H 8100 5850 60  0000 C CNN
F 2 "" H 8100 6000 60  0000 C CNN
F 3 "" H 8100 6000 60  0000 C CNN
	1    8100 6000
	1    0    0    -1  
$EndComp
$Comp
L GND #PWR09
U 1 1 55666D79
P 1300 4400
F 0 "#PWR09" H 1300 4150 60  0001 C CNN
F 1 "GND" H 1300 4250 60  0000 C CNN
F 2 "" H 1300 4400 60  0000 C CNN
F 3 "" H 1300 4400 60  0000 C CNN
	1    1300 4400
	1    0    0    -1  
$EndComp
$Comp
L +5V #PWR010
U 1 1 55667940
P 7600 5200
F 0 "#PWR010" H 7600 5050 60  0001 C CNN
F 1 "+5V" H 7600 5340 60  0000 C CNN
F 2 "" H 7600 5200 60  0000 C CNN
F 3 "" H 7600 5200 60  0000 C CNN
	1    7600 5200
	1    0    0    -1  
$EndComp
$Comp
L +3V3 #PWR011
U 1 1 55668713
P 1000 3600
F 0 "#PWR011" H 1000 3450 60  0001 C CNN
F 1 "+3V3" H 1000 3740 60  0000 C CNN
F 2 "" H 1000 3600 60  0000 C CNN
F 3 "" H 1000 3600 60  0000 C CNN
	1    1000 3600
	1    0    0    -1  
$EndComp
$Comp
L C C3
U 1 1 5566A1FA
P 7100 2400
F 0 "C3" H 7100 2500 40  0000 L CNN
F 1 "30p" H 7100 2300 40  0000 L CNN
F 2 "Capacitors_SMD:C_0603" H 7400 2400 39  0001 C CNN
F 3 "~" H 7100 2400 60  0000 C CNN
	1    7100 2400
	1    0    0    -1  
$EndComp
$Comp
L C C1
U 1 1 5566A201
P 6300 2400
F 0 "C1" H 6300 2500 40  0000 L CNN
F 1 "30p" H 6300 2300 40  0000 L CNN
F 2 "Capacitors_SMD:C_0603" H 6600 2400 39  0001 C CNN
F 3 "~" H 6300 2400 60  0000 C CNN
	1    6300 2400
	1    0    0    -1  
$EndComp
$Comp
L CRYSTAL X1
U 1 1 5566A208
P 6700 2100
F 0 "X1" H 6700 2250 60  0000 C CNN
F 1 "8MHz" H 6700 1950 60  0000 C CNN
F 2 "Crystals:Crystal_HC49-U_Vertical" H 6700 1850 39  0001 C CNN
F 3 "~" H 6700 2100 60  0000 C CNN
	1    6700 2100
	1    0    0    -1  
$EndComp
$Comp
L R R1
U 1 1 5566A215
P 6700 1800
F 0 "R1" V 6780 1800 40  0000 C CNN
F 1 "1M*" V 6707 1801 40  0000 C CNN
F 2 "Resistors_SMD:R_0603" V 6600 1800 39  0001 C CNN
F 3 "~" H 6700 1800 30  0000 C CNN
	1    6700 1800
	0    -1   -1   0   
$EndComp
Text GLabel 6300 1600 1    60   Input ~ 0
OSC_IN
Text GLabel 7100 1600 1    60   Input ~ 0
OSC_OUT
Text GLabel 5100 2100 2    60   Input ~ 0
USB_DISC
Text GLabel 1300 2400 0    60   Input ~ 0
SWDIO
Text GLabel 1300 2500 0    60   Input ~ 0
SWCLK
$Comp
L CONN_01X04 P1
U 1 1 5566FF31
P 6900 5650
F 0 "P1" H 6900 5900 50  0000 C CNN
F 1 "SWD" V 7000 5650 50  0000 C CNN
F 2 "Pin_Headers:Pin_Header_Straight_1x04" H 6900 5650 60  0001 C CNN
F 3 "" H 6900 5650 60  0000 C CNN
	1    6900 5650
	1    0    0    1   
$EndComp
$Comp
L +3V3 #PWR012
U 1 1 5566FF38
P 6600 5400
F 0 "#PWR012" H 6600 5250 60  0001 C CNN
F 1 "+3V3" H 6600 5540 60  0000 C CNN
F 2 "" H 6600 5400 60  0000 C CNN
F 3 "" H 6600 5400 60  0000 C CNN
	1    6600 5400
	1    0    0    -1  
$EndComp
$Comp
L GND #PWR013
U 1 1 5566FF3E
P 6600 5900
F 0 "#PWR013" H 6600 5650 60  0001 C CNN
F 1 "GND" H 6600 5750 60  0000 C CNN
F 2 "" H 6600 5900 60  0000 C CNN
F 3 "" H 6600 5900 60  0000 C CNN
	1    6600 5900
	1    0    0    -1  
$EndComp
Text GLabel 6500 5600 0    60   Input ~ 0
SWCLK
Text GLabel 6500 5800 0    60   Input ~ 0
SWDIO
$Comp
L C C2
U 1 1 55672BB5
P 6700 4200
F 0 "C2" H 6750 4300 40  0000 L CNN
F 1 "100n" H 6750 4100 40  0000 L CNN
F 2 "Capacitors_SMD:C_0603" H 6738 4050 30  0001 C CNN
F 3 "" H 6700 4200 60  0000 C CNN
	1    6700 4200
	1    0    0    -1  
$EndComp
$Comp
L GND #PWR014
U 1 1 55672BBC
P 6700 4500
F 0 "#PWR014" H 6700 4250 60  0001 C CNN
F 1 "GND" H 6700 4350 60  0000 C CNN
F 2 "" H 6700 4500 60  0000 C CNN
F 3 "" H 6700 4500 60  0000 C CNN
	1    6700 4500
	1    0    0    -1  
$EndComp
$Comp
L GND #PWR015
U 1 1 55672C32
P 6700 2800
F 0 "#PWR015" H 6700 2550 60  0001 C CNN
F 1 "GND" H 6700 2650 60  0000 C CNN
F 2 "" H 6700 2800 60  0000 C CNN
F 3 "" H 6700 2800 60  0000 C CNN
	1    6700 2800
	1    0    0    -1  
$EndComp
Text GLabel 6700 3700 1    60   Input ~ 0
RESET
Connection ~ 8600 5300
Wire Wire Line
	8600 5900 8600 5800
Wire Wire Line
	8600 5200 8600 5400
Wire Wire Line
	8100 5900 10400 5900
Wire Wire Line
	8100 5800 8100 6000
Wire Wire Line
	8500 5300 10400 5300
Wire Wire Line
	7700 5300 7600 5300
Wire Wire Line
	7600 5300 7600 5200
Connection ~ 8100 5900
Wire Wire Line
	9200 5300 9200 5400
Wire Wire Line
	9500 5300 9500 5400
Connection ~ 9200 5300
Wire Wire Line
	9800 5300 9800 5400
Connection ~ 9500 5300
Wire Wire Line
	10100 5300 10100 5400
Connection ~ 9800 5300
Wire Wire Line
	9200 5900 9200 5800
Connection ~ 8600 5900
Wire Wire Line
	9500 5900 9500 5800
Connection ~ 9200 5900
Wire Wire Line
	9800 5900 9800 5800
Connection ~ 9500 5900
Wire Wire Line
	10100 5900 10100 5800
Connection ~ 9800 5900
Wire Wire Line
	10400 5900 10400 5800
Connection ~ 10100 5900
Wire Wire Line
	10400 5300 10400 5400
Connection ~ 10100 5300
Connection ~ 9700 1550
Wire Wire Line
	9700 1550 9700 1450
Wire Wire Line
	9000 2600 9000 2700
Wire Wire Line
	9600 3600 9600 3800
Connection ~ 9600 1550
Wire Wire Line
	9600 1550 9600 2400
Connection ~ 9500 2300
Wire Wire Line
	10400 2300 10400 2400
Wire Wire Line
	9300 2300 10400 2300
Wire Wire Line
	8400 1300 8400 1100
Wire Wire Line
	9400 1550 9900 1550
Wire Wire Line
	9400 3500 9400 3700
Connection ~ 9600 3000
Wire Wire Line
	9600 2900 9600 3100
Wire Wire Line
	10200 3300 10400 3300
Wire Wire Line
	10200 3300 10200 3200
Wire Wire Line
	8200 2300 8800 2300
Wire Wire Line
	8600 1650 8600 1550
Wire Wire Line
	8600 1550 8700 1550
Wire Wire Line
	9500 2000 9050 2000
Wire Wire Line
	8700 2500 8700 2300
Wire Wire Line
	9800 3700 9800 1850
Wire Wire Line
	9050 2000 9050 1900
Connection ~ 9050 1100
Wire Wire Line
	9050 1200 9050 1100
Wire Wire Line
	9800 1950 9900 1950
Connection ~ 8400 2000
Wire Wire Line
	8400 1800 8400 2500
Connection ~ 8550 3000
Wire Wire Line
	8550 3100 8550 3000
Wire Wire Line
	8400 2900 8400 3000
Wire Wire Line
	8400 3000 8700 3000
Wire Wire Line
	8700 3000 8700 2900
Connection ~ 8700 2300
Wire Wire Line
	8400 1100 9500 1100
Wire Wire Line
	10200 2650 10200 2800
Wire Wire Line
	8200 2000 8400 2000
Wire Wire Line
	9900 1650 9500 1650
Wire Wire Line
	9400 3100 9400 3000
Wire Wire Line
	9500 1750 9500 2300
Wire Wire Line
	9500 1750 9900 1750
Connection ~ 9500 2000
Wire Wire Line
	9500 1650 9500 1100
Wire Wire Line
	9400 3000 9900 3000
Wire Wire Line
	10400 3300 10400 2900
Wire Wire Line
	9400 3700 9800 3700
Connection ~ 9600 3700
Wire Wire Line
	9000 3200 9000 3300
Wire Wire Line
	8900 3300 9100 3300
Connection ~ 9000 3300
Wire Wire Line
	8400 3300 8200 3300
Wire Wire Line
	9800 1850 9900 1850
Wire Wire Line
	1400 2200 1300 2200
Wire Wire Line
	1400 2300 1300 2300
Connection ~ 9800 1950
Wire Wire Line
	1400 3400 1300 3400
Wire Wire Line
	1300 3400 1300 4400
Wire Wire Line
	1300 3600 1400 3600
Wire Wire Line
	1300 3800 1400 3800
Connection ~ 1300 3600
Wire Wire Line
	1300 4000 1400 4000
Connection ~ 1300 3800
Wire Wire Line
	1300 4200 1400 4200
Connection ~ 1300 4000
Connection ~ 1300 4200
Wire Wire Line
	1200 4300 1400 4300
Wire Wire Line
	1200 3300 1200 4300
Wire Wire Line
	1200 4100 1400 4100
Wire Wire Line
	1400 3900 1200 3900
Connection ~ 1200 4100
Wire Wire Line
	1000 3700 1400 3700
Connection ~ 1200 3900
Wire Wire Line
	1400 3500 1200 3500
Connection ~ 1200 3700
Wire Wire Line
	1400 3300 1200 3300
Connection ~ 1200 3500
Wire Wire Line
	1400 3200 1300 3200
Wire Wire Line
	1400 2800 1300 2800
Wire Wire Line
	1400 2900 1300 2900
Wire Wire Line
	1400 3000 1300 3000
Wire Wire Line
	1400 3100 1300 3100
Wire Wire Line
	1400 2600 1300 2600
Wire Wire Line
	1400 2500 1300 2500
Wire Wire Line
	1400 2400 1300 2400
Wire Wire Line
	1300 1100 1400 1100
Wire Wire Line
	1300 1200 1400 1200
Wire Wire Line
	1300 1300 1400 1300
Wire Wire Line
	1300 1400 1400 1400
Wire Wire Line
	1300 1500 1400 1500
Wire Wire Line
	1300 1600 1400 1600
Wire Wire Line
	1300 1700 1400 1700
Wire Wire Line
	1300 1800 1400 1800
Wire Wire Line
	1300 1900 1400 1900
Wire Wire Line
	1300 2000 1400 2000
Wire Wire Line
	1300 2100 1400 2100
Wire Wire Line
	5000 1100 5100 1100
Wire Wire Line
	5100 1200 5000 1200
Wire Wire Line
	5100 1300 5000 1300
Wire Wire Line
	5100 1400 5000 1400
Wire Wire Line
	5100 1500 5000 1500
Wire Wire Line
	5100 1600 5000 1600
Wire Wire Line
	5100 1700 5000 1700
Wire Wire Line
	5100 1800 5000 1800
Wire Wire Line
	5100 1900 5000 1900
Wire Wire Line
	5100 2000 5000 2000
Wire Wire Line
	5100 2100 5000 2100
Wire Wire Line
	5100 2200 5000 2200
Wire Wire Line
	5100 2300 5000 2300
Wire Wire Line
	5100 2400 5000 2400
Wire Wire Line
	5100 2500 5000 2500
Wire Wire Line
	5100 2600 5000 2600
Wire Wire Line
	5100 2800 5000 2800
Wire Wire Line
	5100 2900 5000 2900
Wire Wire Line
	5100 3000 5000 3000
Wire Wire Line
	5100 3100 5000 3100
Wire Wire Line
	5100 3200 5000 3200
Wire Wire Line
	5100 3300 5000 3300
Wire Wire Line
	5100 3400 5000 3400
Wire Wire Line
	5100 3500 5000 3500
Wire Wire Line
	5100 3600 5000 3600
Wire Wire Line
	5100 3700 5000 3700
Wire Wire Line
	5100 3800 5000 3800
Wire Wire Line
	5100 3900 5000 3900
Wire Wire Line
	5100 4000 5000 4000
Wire Wire Line
	5100 4100 5000 4100
Wire Wire Line
	5100 4200 5000 4200
Wire Wire Line
	5100 4300 5000 4300
Wire Wire Line
	1000 3600 1000 3700
Connection ~ 7100 1800
Connection ~ 6300 1800
Wire Wire Line
	7100 1800 6950 1800
Connection ~ 6300 2100
Wire Wire Line
	6300 1800 6450 1800
Connection ~ 6700 2700
Wire Wire Line
	6700 2700 6700 2800
Wire Wire Line
	7100 2700 7100 2600
Wire Wire Line
	6300 2700 7100 2700
Wire Wire Line
	6300 2600 6300 2700
Wire Wire Line
	6300 2100 6400 2100
Wire Wire Line
	6300 1600 6300 2200
Connection ~ 7100 2100
Wire Wire Line
	7100 1600 7100 2200
Wire Wire Line
	7100 2100 7000 2100
Wire Wire Line
	6700 5700 6600 5700
Wire Wire Line
	6600 5700 6600 5900
Wire Wire Line
	6700 5500 6600 5500
Wire Wire Line
	6600 5500 6600 5400
Wire Wire Line
	6700 5600 6500 5600
Wire Wire Line
	6700 5800 6500 5800
Wire Wire Line
	6700 4500 6700 4400
Wire Wire Line
	6700 3700 6700 4000
$Comp
L CONN_01X05 P2
U 1 1 556564F5
P 10100 1750
F 0 "P2" H 10100 2050 50  0000 C CNN
F 1 "USB" V 10200 1750 50  0000 C CNN
F 2 "Local:USBPCB" H 10100 1750 60  0001 C CNN
F 3 "" H 10100 1750 60  0000 C CNN
	1    10100 1750
	1    0    0    -1  
$EndComp
NoConn ~ 5100 1100
NoConn ~ 5100 1200
NoConn ~ 5100 1300
NoConn ~ 5100 1400
NoConn ~ 5100 1500
NoConn ~ 5100 1600
NoConn ~ 5100 1700
NoConn ~ 5100 1800
NoConn ~ 5100 1900
NoConn ~ 5100 2000
NoConn ~ 5100 2200
NoConn ~ 5100 2300
NoConn ~ 5100 2400
NoConn ~ 5100 2500
NoConn ~ 5100 2600
NoConn ~ 5100 2800
NoConn ~ 5100 2900
NoConn ~ 5100 3000
NoConn ~ 5100 3100
NoConn ~ 5100 3200
NoConn ~ 5100 3300
NoConn ~ 5100 3400
NoConn ~ 5100 3500
NoConn ~ 5100 3600
NoConn ~ 5100 3700
NoConn ~ 5100 3800
NoConn ~ 5100 3900
NoConn ~ 5100 4000
NoConn ~ 5100 4100
NoConn ~ 5100 4200
NoConn ~ 5100 4300
NoConn ~ 1300 1100
NoConn ~ 1300 1200
NoConn ~ 1300 1300
NoConn ~ 1300 1400
NoConn ~ 1300 1500
NoConn ~ 1300 1600
NoConn ~ 1300 1700
NoConn ~ 1300 1800
NoConn ~ 1300 1900
NoConn ~ 1300 2000
NoConn ~ 1300 2100
NoConn ~ 1300 3000
NoConn ~ 1300 3100
NoConn ~ 1300 2600
$EndSCHEMATC
