(module USBPCB (layer F.Cu) (tedit 556440D4)
  (fp_text reference REF** (at -6.0325 0.5) (layer F.SilkS)
    (effects (font (size 1 1) (thickness 0.15)))
  )
  (fp_text value USBPCB (at -6.0325 -0.5) (layer F.Fab)
    (effects (font (size 1 1) (thickness 0.15)))
  )
  (fp_line (start -6.0325 -13.335) (end 6.0325 -13.335) (layer F.SilkS) (width 0.15))
  (fp_line (start 6.0325 -13.335) (end 6.0325 0) (layer F.SilkS) (width 0.15))
  (fp_line (start -6.0325 0) (end -6.0325 -13.335) (layer F.SilkS) (width 0.15))
  (pad 1 smd rect (at -3.81 -6.35) (size 1.27 12.7) (layers F.Cu F.Paste F.Mask))
  (pad 2 smd rect (at -1.0795 -6.0325) (size 1.27 12.065) (layers F.Cu F.Paste F.Mask))
  (pad 3 smd rect (at 1.0795 -6.0325) (size 1.27 12.065) (layers F.Cu F.Paste F.Mask))
  (pad 4 smd rect (at 3.81 -6.35) (size 1.27 12.7) (layers F.Cu F.Paste F.Mask))
  (pad 5 smd rect (at 0 -6.35) (size 10.16 12.7) (layers B.Cu F.Paste F.Mask))
)
